# This file uses centimeters as units for non-parametric coordinates.

mtllib Tele.mtl
g default
v -21.603189 44.115813 -44.173505
v 21.603189 44.115813 -44.173505
v -21.603189 65.424186 -44.173505
v 21.603189 65.424186 -44.173505
v -21.603189 65.424186 -45.671299
v 21.603189 65.424186 -45.671299
v -21.603189 44.115813 -45.671299
v 21.603189 44.115813 -45.671299
v -18.108875 58.866610 -45.671299
v 18.108875 58.866610 -45.671299
v 18.108875 50.673377 -45.671299
v -18.108875 50.673377 -45.671299
v -2.056102 57.241386 -51.630803
v 2.056102 57.241386 -51.630803
v 2.056102 53.419856 -51.630803
v -2.056102 53.419856 -51.630803
v -20.188285 45.418030 -44.173505
v 20.188285 45.418030 -44.173505
v 20.188285 64.121964 -44.173505
v -20.188285 64.121964 -44.173505
v -20.188285 45.418030 -44.883290
v 20.188285 45.418030 -44.883290
v 20.188285 64.121964 -44.883290
v -20.188285 64.121964 -44.883290
vt 0.012179 0.651347
vt 0.653962 0.651347
vt 0.012179 0.991785
vt 0.653962 0.991785
vt 0.550967 0.603093
vt 0.052034 0.603093
vt 0.550967 0.298733
vt 0.052034 0.298733
vt 0.627724 0.218875
vt 0.931044 0.218875
vt 0.931044 0.065950
vt 0.064353 0.700595
vt 0.580861 0.269086
vt 0.982929 0.269086
vt 0.275891 0.147389
vt 0.227858 0.270447
vt 0.027880 0.147389
vt 0.227858 0.172606
vt 0.873531 0.863472
vt 0.026935 0.233923
vt 0.126120 0.046231
vt 0.026935 0.205217
vt 0.580861 0.019086
vt 0.982929 0.019086
vt 0.627724 0.065950
vt 0.064353 0.950595
vt 0.614575 0.950595
vt 0.614575 0.700595
vt 0.062038 0.695975
vt 0.062038 0.956155
vt 0.615230 0.956155
vt 0.615230 0.695975
vt 0.699097 0.644553
vt 0.599839 0.500641
vt 0.951942 0.450339
vt 0.800909 0.644553
vt 0.748272 0.987683
vt 0.599839 0.401657
vt 0.951942 0.551765
vt 0.850910 0.987683
vt 0.400471 0.499557
vt 0.400471 0.400104
vt 0.197859 0.400104
vt 0.197859 0.499557
vt 0.176678 0.046231
vt 0.873531 0.976556
vt 0.975753 0.976556
vt 0.975753 0.863472
vt 0.748272 0.644553
vt 0.599839 0.450339
vt 0.951942 0.401657
vt 0.850910 0.644553
vt 0.699097 0.987683
vt 0.599839 0.551765
vt 0.951942 0.500641
vt 0.800909 0.987683
vt 0.275891 0.147389
vt 0.176678 0.046231
vt 0.227858 0.173468
vt 0.026935 0.206079
vt 0.027880 0.147389
vt 0.126120 0.046231
vt 0.227858 0.272193
vt 0.026935 0.234365
vn 0.000000 0.000000 1.000000
vn 0.000000 0.000000 1.000000
vn 0.000000 0.000000 1.000000
vn 0.000000 0.000000 1.000000
vn 0.000000 1.000000 0.000000
vn 0.000000 1.000000 0.000000
vn 0.000000 1.000000 0.000000
vn 0.000000 1.000000 0.000000
vn 0.000000 0.000000 -1.000000
vn 0.000000 0.000000 -1.000000
vn 0.000000 0.000000 -1.000000
vn 0.000000 0.000000 -1.000000
vn 0.000000 -1.000000 0.000000
vn 0.000000 -1.000000 0.000000
vn 0.000000 -1.000000 0.000000
vn 0.000000 -1.000000 0.000000
vn 1.000000 0.000000 0.000000
vn 1.000000 0.000000 0.000000
vn 1.000000 0.000000 0.000000
vn 1.000000 0.000000 0.000000
vn -1.000000 0.000000 0.000000
vn -1.000000 0.000000 0.000000
vn -1.000000 0.000000 0.000000
vn -1.000000 0.000000 0.000000
vn 0.000000 0.000000 -1.000000
vn 0.000000 0.000000 -1.000000
vn 0.000000 0.000000 -1.000000
vn 0.000000 0.000000 -1.000000
vn 0.000000 0.000000 -1.000000
vn 0.000000 0.000000 -1.000000
vn 0.000000 0.000000 -1.000000
vn 0.000000 0.000000 -1.000000
vn 0.000000 0.000000 -1.000000
vn 0.000000 0.000000 -1.000000
vn 0.000000 0.000000 -1.000000
vn 0.000000 0.000000 -1.000000
vn 0.000000 0.000000 -1.000000
vn 0.000000 0.000000 -1.000000
vn 0.000000 0.000000 -1.000000
vn 0.000000 0.000000 -1.000000
vn 0.000000 0.964768 -0.263103
vn 0.000000 0.964768 -0.263103
vn 0.000000 0.964768 -0.263103
vn 0.000000 0.964768 -0.263103
vn 0.348035 0.000000 -0.937482
vn 0.348035 0.000000 -0.937482
vn 0.348035 0.000000 -0.937482
vn 0.348035 0.000000 -0.937482
vn 0.000000 -0.908195 -0.418548
vn 0.000000 -0.908195 -0.418548
vn 0.000000 -0.908195 -0.418548
vn 0.000000 -0.908195 -0.418548
vn -0.348035 0.000000 -0.937482
vn -0.348035 0.000000 -0.937482
vn -0.348035 0.000000 -0.937482
vn -0.348035 0.000000 -0.937482
vn 0.000000 0.000000 1.000000
vn 0.000000 0.000000 1.000000
vn 0.000000 0.000000 1.000000
vn 0.000000 0.000000 1.000000
vn 0.000000 0.000000 1.000000
vn 0.000000 0.000000 1.000000
vn 0.000000 0.000000 1.000000
vn 0.000000 0.000000 1.000000
vn 0.000000 0.000000 1.000000
vn 0.000000 0.000000 1.000000
vn 0.000000 0.000000 1.000000
vn 0.000000 0.000000 1.000000
vn 0.000000 0.000000 1.000000
vn 0.000000 0.000000 1.000000
vn 0.000000 0.000000 1.000000
vn 0.000000 0.000000 1.000000
vn 0.000000 1.000000 0.000000
vn 0.000000 1.000000 0.000000
vn 0.000000 1.000000 0.000000
vn 0.000000 1.000000 0.000000
vn -1.000000 0.000000 0.000000
vn -1.000000 0.000000 0.000000
vn -1.000000 0.000000 0.000000
vn -1.000000 0.000000 0.000000
vn 0.000000 -1.000000 0.000000
vn 0.000000 -1.000000 0.000000
vn 0.000000 -1.000000 0.000000
vn 0.000000 -1.000000 0.000000
vn 1.000000 0.000000 0.000000
vn 1.000000 0.000000 0.000000
vn 1.000000 0.000000 0.000000
vn 1.000000 0.000000 0.000000
s off
g pCube1
usemtl lambert6SG
f 21/12/1 22/28/2 23/27/3 24/26/4
f 3/55/5 4/34/6 6/54/7 5/39/8
f 13/19/9 14/48/10 15/47/11 16/46/12
f 7/51/13 8/38/14 2/50/15 1/35/16
f 2/33/17 8/49/18 6/37/19 4/53/20
f 7/40/21 1/52/22 3/36/23 5/56/24
f 5/5/25 6/6/26 10/44/27 9/41/28
f 6/6/29 8/8/30 11/43/31 10/44/32
f 8/8/33 7/7/34 12/42/35 11/43/36
f 7/7/37 5/5/38 9/41/39 12/42/40
f 9/15/41 10/61/42 14/62/43 13/45/44
f 10/16/45 11/59/46 15/60/47 14/20/48
f 11/17/49 12/57/50 16/58/51 15/21/52
f 12/18/53 9/63/54 13/64/55 16/22/56
f 1/1/57 2/2/58 18/32/59 17/29/60
f 2/2/61 4/4/62 19/31/63 18/32/64
f 4/4/65 3/3/66 20/30/67 19/31/68
f 3/3/69 1/1/70 17/29/71 20/30/72
f 17/23/73 18/24/74 22/11/75 21/25/76
f 18/24/77 19/14/78 23/10/79 22/11/80
f 19/14/81 20/13/82 24/9/83 23/10/84
f 20/13/85 17/23/86 21/25/87 24/9/88
